{
  "nativeChain": {
    "chainId": 9999,
    "identifier": "chainfusion",
    "name": "ChainFusion",
    "rpc": "https://rpc.sv.chainfusion.org",
    "explorer": "https://explorer.sv.chainfusion.org",
    "nativeCurrency": {
      "name": "ChainFusion",
      "symbol": "CFN",
      "decimals": 18
    }
  },
  "nativeContracts": {
    "staking": "0xa81961dd0138877bE7AfcF3092C94f04d51d5bf4",
    "eventRegistry": "0xf1bC7947A107EC3Cc2776360AF09bb2570C06650"
  },
  "chains": [
    {
      "chainId": 9991,
      "identifier": "bg1",
      "name": "Bg1",
      "rpc": "https://rpc-bg1.chainfusion.org",
      "explorer": "https://explorer-bg1.chainfusion.org",
      "nativeCurrency": {
        "name": "ChainFusion",
        "symbol": "CFN",
        "decimals": 18
      },
      "erc20BridgeAddress": "0xf0EF0d8351E222653d2e2343C40cCb797688DDB2"
    },
    {
      "chainId": 9992,
      "identifier": "bg2",
      "name": "Bg2",
      "rpc": "https://rpc-bg2.chainfusion.org",
      "explorer": "https://explorer-bg2.chainfusion.org",
      "nativeCurrency": {
        "name": "ChainFusion",
        "symbol": "CFN",
        "decimals": 18
      },
      "erc20BridgeAddress": "0xf0EF0d8351E222653d2e2343C40cCb797688DDB2"
    },
    {
      "chainId": 9993,
      "identifier": "bg3",
      "name": "Bg3",
      "rpc": "https://rpc-bg3.chainfusion.org",
      "explorer": "https://explorer-bg3.chainfusion.org",
      "nativeCurrency": {
        "name": "ChainFusion",
        "symbol": "CFN",
        "decimals": 18
      },
      "erc20BridgeAddress": "0xf0EF0d8351E222653d2e2343C40cCb797688DDB2"
    }
  ],
  "tokens": [
    {
      "identifier": "usdt",
      "name": "Tether",
      "symbol": "USDT",
      "decimals": 18,
      "chains": {
        "bg1": "0x8021ECA3E253c3763245054EDf102BB2c422130E",
        "bg2": "0x8021ECA3E253c3763245054EDf102BB2c422130E",
        "bg3": "0x8021ECA3E253c3763245054EDf102BB2c422130E"
      }
    },
    {
      "identifier": "usdc",
      "name": "USD Coin",
      "symbol": "USDC",
      "decimals": 18,
      "chains": {
        "bg1": "0x5C9A70419C23231ee3EC706D5a12Fb73c8cedBBB",
        "bg2": "0x5C9A70419C23231ee3EC706D5a12Fb73c8cedBBB",
        "bg3": "0x5C9A70419C23231ee3EC706D5a12Fb73c8cedBBB"
      }
    }
  ]
}
